# Blender 4.1.1
# www.blender.org
mtllib monkeytextured.mtl
o Suzanne
v 0.422825 1.311461 0.970600
v -0.452175 1.311461 0.970600
v 0.485325 1.241148 0.892475
v -0.514675 1.241148 0.892475
v 0.532200 1.202086 0.783100
v -0.561550 1.202086 0.783100
v 0.336888 1.123961 0.822162
v -0.366237 1.123961 0.822162
v 0.336888 1.178648 0.923725
v -0.366237 1.178648 0.923725
v 0.336888 1.280211 0.986225
v -0.366237 1.280211 0.986225
v 0.258763 1.311461 1.001850
v -0.288112 1.311461 1.001850
v 0.188450 1.241148 0.947162
v -0.217800 1.241148 0.947162
v 0.141575 1.202086 0.853412
v -0.170925 1.202086 0.853412
v 0.063450 1.389586 0.861225
v -0.092800 1.389586 0.861225
v 0.125950 1.389586 0.947162
v -0.155300 1.389586 0.947162
v 0.227513 1.389586 1.001850
v -0.256862 1.389586 1.001850
v 0.258763 1.475523 1.001850
v -0.288112 1.475523 1.001850
v 0.188450 1.538023 0.947162
v -0.217800 1.538023 0.947162
v 0.141575 1.584898 0.853412
v -0.170925 1.584898 0.853412
v 0.336888 1.663023 0.822162
v -0.366237 1.663023 0.822162
v 0.336888 1.600523 0.923725
v -0.366237 1.600523 0.923725
v 0.336888 1.506773 0.986225
v -0.366237 1.506773 0.986225
v 0.422825 1.475523 0.970600
v -0.452175 1.475523 0.970600
v 0.485325 1.538023 0.892475
v -0.514675 1.538023 0.892475
v 0.532200 1.584898 0.783100
v -0.561550 1.584898 0.783100
v 0.610325 1.389586 0.767475
v -0.639675 1.389586 0.767475
v 0.547825 1.389586 0.876850
v -0.577175 1.389586 0.876850
v 0.454075 1.389586 0.962787
v -0.483425 1.389586 0.962787
v 0.461888 1.389586 0.978412
v -0.491237 1.389586 0.978412
v 0.430638 1.483336 0.986225
v -0.459987 1.483336 0.986225
v 0.336888 1.522398 1.009662
v -0.366237 1.522398 1.009662
v 0.250950 1.483336 1.025287
v -0.280300 1.483336 1.025287
v 0.211888 1.389586 1.025287
v -0.241237 1.389586 1.025287
v 0.250950 1.303648 1.025287
v -0.280300 1.303648 1.025287
v 0.336888 1.389586 1.033100
v -0.366237 1.389586 1.033100
v 0.336888 1.264586 1.009662
v -0.366237 1.264586 1.009662
v 0.430638 1.303648 0.986225
v -0.459987 1.303648 0.986225
v -0.014675 1.577086 0.947162
v -0.014675 1.498961 1.025287
v -0.014675 0.467711 0.939350
v -0.014675 0.827086 0.986225
v -0.014675 0.959898 1.001850
v -0.014675 0.373961 0.923725
v -0.014675 1.553648 0.806537
v -0.014675 1.717711 0.775287
v -0.014675 2.045836 -0.341900
v -0.014675 1.709898 -0.646588
v -0.014675 1.217711 -0.623150
v -0.014675 0.764586 -0.146588
v 0.188450 0.959898 0.767475
v -0.217800 0.959898 0.767475
v 0.297825 0.709898 0.775287
v -0.327175 0.709898 0.775287
v 0.336888 0.452086 0.775287
v -0.366237 0.452086 0.775287
v 0.352513 0.256773 0.736225
v -0.381862 0.256773 0.736225
v 0.313450 0.202086 0.728412
v -0.342800 0.202086 0.728412
v 0.165013 0.178648 0.759662
v -0.194362 0.178648 0.759662
v -0.014675 0.163023 0.783100
v 0.422825 1.006773 0.736225
v -0.452175 1.006773 0.736225
v 0.618138 1.108336 0.744037
v -0.647487 1.108336 0.744037
v 0.813450 1.295836 0.650287
v -0.842800 1.295836 0.650287
v 0.844700 1.577086 0.798725
v -0.874050 1.577086 0.798725
v 0.696263 1.631773 0.829975
v -0.725612 1.631773 0.829975
v 0.477513 1.748961 0.892475
v -0.506862 1.748961 0.892475
v 0.305638 1.905211 0.939350
v -0.334987 1.905211 0.939350
v 0.141575 1.866148 0.962787
v -0.170925 1.866148 0.962787
v 0.047825 1.639586 0.954975
v -0.077175 1.639586 0.954975
v 0.149388 1.561461 0.978412
v -0.178737 1.561461 0.978412
v 0.110325 1.452086 0.970600
v -0.139675 1.452086 0.970600
v 0.188450 1.241148 0.947162
v -0.217800 1.241148 0.947162
v 0.360325 1.163023 0.908100
v -0.389675 1.163023 0.908100
v 0.477513 1.209898 0.876850
v -0.506862 1.209898 0.876850
v 0.610325 1.334898 0.853412
v -0.639675 1.334898 0.853412
v 0.625950 1.444273 0.853412
v -0.655300 1.444273 0.853412
v 0.586888 1.522398 0.869037
v -0.616237 1.522398 0.869037
v 0.415013 1.584898 0.923725
v -0.444362 1.584898 0.923725
v 0.235325 1.616148 0.962787
v -0.264675 1.616148 0.962787
v -0.014675 0.381773 0.939350
v 0.094700 0.428648 0.939350
v -0.124050 0.428648 0.939350
v 0.102513 0.311461 0.915912
v -0.131862 0.311461 0.915912
v 0.047825 0.264586 0.900287
v -0.077175 0.264586 0.900287
v -0.014675 0.256773 0.892475
v -0.014675 0.952086 0.954975
v -0.014675 1.006773 0.947162
v 0.086888 0.998961 0.947162
v -0.116237 0.998961 0.947162
v 0.110325 0.920836 0.954975
v -0.139675 0.920836 0.954975
v 0.071263 0.858336 0.947162
v -0.100612 0.858336 0.947162
v 0.383763 1.100523 0.876850
v -0.413112 1.100523 0.876850
v 0.602513 1.202086 0.829975
v -0.631862 1.202086 0.829975
v 0.711888 1.350523 0.806537
v -0.741237 1.350523 0.806537
v 0.727513 1.522398 0.861225
v -0.756862 1.522398 0.861225
v 0.672825 1.561461 0.931537
v -0.702175 1.561461 0.931537
v 0.422825 1.694273 1.001850
v -0.452175 1.694273 1.001850
v 0.297825 1.788023 1.040912
v -0.327175 1.788023 1.040912
v 0.188450 1.764586 1.056537
v -0.217800 1.764586 1.056537
v 0.086888 1.577086 1.048725
v -0.116237 1.577086 1.048725
v 0.110325 1.045836 1.017475
v -0.139675 1.045836 1.017475
v 0.196263 0.702086 0.915912
v -0.225612 0.702086 0.915912
v 0.235325 0.444273 0.892475
v -0.264675 0.444273 0.892475
v 0.250950 0.327086 0.869037
v -0.280300 0.327086 0.869037
v 0.219700 0.233336 0.837787
v -0.249050 0.233336 0.837787
v 0.149388 0.217711 0.837787
v -0.178737 0.217711 0.837787
v -0.014675 0.202086 0.845600
v -0.014675 1.194273 0.931537
v -0.014675 1.358336 0.970600
v 0.313450 1.623961 0.947162
v -0.342800 1.623961 0.947162
v 0.149388 1.288023 0.954975
v -0.178737 1.288023 0.954975
v 0.118138 1.358336 0.962787
v -0.147487 1.358336 0.962787
v 0.102513 0.459898 0.939350
v -0.131862 0.459898 0.939350
v 0.063450 0.702086 0.954975
v -0.092800 0.702086 0.954975
v -0.014675 0.702086 0.954975
v -0.014675 0.819273 0.947162
v 0.079075 0.873961 0.986225
v -0.108425 0.873961 0.986225
v 0.118138 0.920836 1.001850
v -0.147487 0.920836 1.001850
v 0.094700 1.014586 0.986225
v -0.124050 1.014586 0.986225
v 0.024388 1.022398 0.986225
v -0.053737 1.022398 0.986225
v -0.014675 0.944273 1.033100
v 0.032200 0.998961 1.017475
v -0.061550 0.998961 1.017475
v 0.079075 0.991148 1.017475
v -0.108425 0.991148 1.017475
v 0.094700 0.920836 1.033100
v -0.124050 0.920836 1.033100
v 0.063450 0.897398 1.009662
v -0.092800 0.897398 1.009662
v -0.014675 0.858336 1.009662
v 0.243138 0.834898 0.759662
v -0.272487 0.834898 0.759662
v 0.149388 0.905211 0.915912
v -0.178737 0.905211 0.915912
v 0.165013 0.834898 0.915912
v -0.194362 0.834898 0.915912
v 0.219700 0.897398 0.759662
v -0.249050 0.897398 0.759662
v -0.014675 0.272398 0.892475
v 0.032200 0.280211 0.892475
v -0.061550 0.280211 0.892475
v 0.079075 0.327086 0.915912
v -0.108425 0.327086 0.915912
v 0.079075 0.405211 0.931537
v -0.108425 0.405211 0.931537
v -0.014675 0.366148 0.861225
v 0.079075 0.397398 0.869037
v -0.108425 0.397398 0.869037
v 0.079075 0.334898 0.845600
v -0.108425 0.334898 0.845600
v 0.032200 0.295836 0.837787
v -0.061550 0.295836 0.837787
v -0.014675 0.288023 0.837787
v 0.157200 1.366148 0.986225
v -0.186550 1.366148 0.986225
v 0.172825 1.303648 0.978412
v -0.202175 1.303648 0.978412
v 0.321263 1.577086 0.962787
v -0.350612 1.577086 0.962787
v 0.258763 1.569273 0.978412
v -0.288112 1.569273 0.978412
v 0.407200 1.545836 0.978412
v -0.436550 1.545836 0.978412
v 0.547825 1.498961 0.900287
v -0.577175 1.498961 0.900287
v 0.571263 1.436461 0.892475
v -0.600612 1.436461 0.892475
v 0.563450 1.342711 0.884662
v -0.592800 1.342711 0.884662
v 0.461888 1.248961 0.923725
v -0.491237 1.248961 0.923725
v 0.360325 1.209898 0.947162
v -0.389675 1.209898 0.947162
v 0.211888 1.256773 0.986225
v -0.241237 1.256773 0.986225
v 0.165013 1.444273 0.986225
v -0.194362 1.444273 0.986225
v 0.196263 1.522398 0.986225
v -0.225612 1.522398 0.986225
v 0.219700 1.506773 0.962787
v -0.249050 1.506773 0.962787
v 0.180638 1.444273 0.962787
v -0.209987 1.444273 0.962787
v 0.227513 1.272398 0.962787
v -0.256862 1.272398 0.962787
v 0.360325 1.233336 0.931537
v -0.389675 1.233336 0.931537
v 0.446263 1.264586 0.908100
v -0.475612 1.264586 0.908100
v 0.532200 1.358336 0.876850
v -0.561550 1.358336 0.876850
v 0.540013 1.428648 0.876850
v -0.569362 1.428648 0.876850
v 0.516575 1.483336 0.884662
v -0.545925 1.483336 0.884662
v 0.399388 1.538023 0.954975
v -0.428737 1.538023 0.954975
v 0.266575 1.545836 0.970600
v -0.295925 1.545836 0.970600
v 0.321263 1.553648 0.954975
v -0.350612 1.553648 0.954975
v 0.188450 1.319273 0.954975
v -0.217800 1.319273 0.954975
v 0.180638 1.373961 0.954975
v -0.209987 1.373961 0.954975
v 0.094700 1.608336 0.814350
v -0.124050 1.608336 0.814350
v 0.180638 1.811461 0.822162
v -0.209987 1.811461 0.822162
v 0.321263 1.834898 0.798725
v -0.350612 1.834898 0.798725
v 0.469700 1.702086 0.759662
v -0.499050 1.702086 0.759662
v 0.665013 1.600523 0.697162
v -0.694362 1.600523 0.697162
v 0.782200 1.553648 0.665912
v -0.811550 1.553648 0.665912
v 0.758763 1.311461 0.579975
v -0.788112 1.311461 0.579975
v 0.586888 1.147398 0.619037
v -0.616237 1.147398 0.619037
v 0.422825 1.053648 0.673725
v -0.452175 1.053648 0.673725
v -0.014675 2.045836 0.494037
v -0.014675 2.131773 0.126850
v -0.014675 0.952086 -0.466900
v -0.014675 0.686461 0.392475
v -0.014675 0.170836 0.665912
v -0.014675 0.342711 0.548725
v -0.014675 0.577086 0.525287
v -0.014675 0.663023 0.486225
v 0.836888 1.381773 0.259662
v -0.866237 1.381773 0.259662
v 0.844700 1.467711 0.158100
v -0.874050 1.467711 0.158100
v 0.758763 1.413023 -0.232525
v -0.788112 1.413023 -0.232525
v 0.446263 1.584898 -0.498150
v -0.475612 1.584898 -0.498150
v 0.719700 1.100523 0.275287
v -0.749050 1.100523 0.275287
v 0.579075 1.022398 0.040912
v -0.608425 1.022398 0.040912
v 0.625950 1.139586 -0.224713
v -0.655300 1.139586 -0.224713
v 0.321263 1.202086 -0.459088
v -0.350612 1.202086 -0.459088
v 0.219700 0.795836 0.611225
v -0.249050 0.795836 0.611225
v 0.165013 0.733336 0.462787
v -0.194362 0.733336 0.462787
v 0.274388 0.436461 0.587787
v -0.303737 0.436461 0.587787
v 0.235325 0.647398 0.595600
v -0.264675 0.647398 0.595600
v 0.313450 0.233336 0.603412
v -0.342800 0.233336 0.603412
v 0.125950 0.389586 0.572162
v -0.155300 0.389586 0.572162
v 0.110325 0.608336 0.564350
v -0.139675 0.608336 0.564350
v 0.149388 0.202086 0.642475
v -0.178737 0.202086 0.642475
v 0.204075 0.866148 0.634662
v -0.233425 0.866148 0.634662
v 0.196263 0.920836 0.673725
v -0.225612 0.920836 0.673725
v 0.188450 0.975523 0.704975
v -0.217800 0.975523 0.704975
v 0.196263 0.756773 0.369037
v -0.225612 0.756773 0.369037
v 0.282200 0.834898 -0.060650
v -0.311550 0.834898 -0.060650
v 0.329075 0.998961 -0.334088
v -0.358425 0.998961 -0.334088
v 0.438450 2.014586 -0.177838
v -0.467800 2.014586 -0.177838
v 0.438450 2.077086 0.134662
v -0.467800 2.077086 0.134662
v 0.438450 1.998961 0.439350
v -0.467800 1.998961 0.439350
v 0.446263 1.670836 0.634662
v -0.475612 1.670836 0.634662
v 0.711888 1.553648 0.540912
v -0.741237 1.553648 0.540912
v 0.618138 1.600523 0.486225
v -0.647487 1.600523 0.486225
v 0.625950 1.850523 0.259662
v -0.655300 1.850523 0.259662
v 0.782200 1.709898 0.329975
v -0.811550 1.709898 0.329975
v 0.782200 1.764586 0.087787
v -0.811550 1.764586 0.087787
v 0.625950 1.897398 0.009662
v -0.655300 1.897398 0.009662
v 0.625950 1.827086 -0.240338
v -0.655300 1.827086 -0.240338
v 0.782200 1.686461 -0.154400
v -0.811550 1.686461 -0.154400
v 0.602513 1.475523 -0.380963
v -0.631862 1.475523 -0.380963
v 0.469700 1.170836 -0.341900
v -0.499050 1.170836 -0.341900
v 0.805638 1.475523 0.001850
v -0.834987 1.475523 0.001850
v 0.391575 0.975523 0.353412
v -0.420925 0.975523 0.353412
v 0.415013 0.952086 -0.005963
v -0.444362 0.952086 -0.005963
v 0.875950 1.553648 -0.029400
v -0.905300 1.553648 -0.029400
v 0.758763 1.006773 0.079975
v -0.788112 1.006773 0.079975
v 1.024388 1.045836 -0.123150
v -1.053737 1.045836 -0.123150
v 1.266575 1.202086 -0.224713
v -1.295925 1.202086 -0.224713
v 1.336888 1.467711 -0.216900
v -1.366237 1.467711 -0.216900
v 1.219700 1.655211 -0.216900
v -1.249050 1.655211 -0.216900
v 1.008763 1.623961 -0.107525
v -1.038112 1.623961 -0.107525
v 1.000950 1.561461 -0.084088
v -1.030300 1.561461 -0.084088
v 1.172825 1.584898 -0.185650
v -1.202175 1.584898 -0.185650
v 1.250950 1.436461 -0.201275
v -1.280300 1.436461 -0.201275
v 1.196263 1.225523 -0.201275
v -1.225612 1.225523 -0.201275
v 1.016575 1.108336 -0.099713
v -1.045925 1.108336 -0.099713
v 0.813450 1.077086 0.072162
v -0.842800 1.077086 0.072162
v 0.907200 1.506773 -0.013775
v -0.936550 1.506773 -0.013775
v 0.930638 1.452086 -0.084088
v -0.959987 1.452086 -0.084088
v 0.868138 1.123961 -0.005963
v -0.897487 1.123961 -0.005963
v 1.024388 1.147398 -0.162213
v -1.053737 1.147398 -0.162213
v 1.172825 1.241148 -0.240338
v -1.202175 1.241148 -0.240338
v 1.219700 1.397398 -0.240338
v -1.249050 1.397398 -0.240338
v 1.157200 1.506773 -0.232525
v -1.186550 1.506773 -0.232525
v 1.008763 1.491148 -0.154400
v -1.038112 1.491148 -0.154400
v 0.829075 1.436461 -0.005963
v -0.858425 1.436461 -0.005963
v 0.821263 1.319273 -0.068463
v -0.850612 1.319273 -0.068463
v 0.743138 1.241148 -0.068463
v -0.772487 1.241148 -0.068463
v 0.805638 1.233336 -0.068463
v -0.834987 1.233336 -0.068463
v 0.829075 1.163023 -0.068463
v -0.858425 1.163023 -0.068463
v 0.797825 1.131773 -0.068463
v -0.827175 1.131773 -0.068463
v 0.711888 1.147398 0.134662
v -0.741237 1.147398 0.134662
v 0.704075 1.123961 0.033100
v -0.733425 1.123961 0.033100
v 0.704075 1.186461 0.017475
v -0.733425 1.186461 0.017475
v 0.782200 1.350523 -0.005963
v -0.811550 1.350523 -0.005963
v 0.875950 1.389586 -0.060650
v -0.905300 1.389586 -0.060650
v 0.875950 1.381773 -0.115338
v -0.905300 1.381773 -0.115338
v 0.797825 1.131773 -0.115338
v -0.827175 1.131773 -0.115338
v 0.836888 1.163023 -0.115338
v -0.866237 1.163023 -0.115338
v 0.813450 1.225523 -0.115338
v -0.842800 1.225523 -0.115338
v 0.750950 1.241148 -0.115338
v -0.780300 1.241148 -0.115338
v 0.829075 1.319273 -0.115338
v -0.858425 1.319273 -0.115338
v 1.024388 1.475523 -0.209088
v -1.053737 1.475523 -0.209088
v 1.172825 1.491148 -0.279400
v -1.202175 1.491148 -0.279400
v 1.243138 1.389586 -0.287213
v -1.272487 1.389586 -0.287213
v 1.196263 1.233336 -0.279400
v -1.225612 1.233336 -0.279400
v 1.032200 1.147398 -0.216900
v -1.061550 1.147398 -0.216900
v 0.868138 1.131773 -0.060650
v -0.897487 1.131773 -0.060650
v 0.938450 1.436461 -0.138775
v -0.967800 1.436461 -0.138775
v 0.875950 1.256773 -0.123150
v -0.905300 1.256773 -0.123150
v 0.922825 1.209898 -0.130963
v -0.952175 1.209898 -0.130963
v 0.985325 1.272398 -0.162213
v -1.014675 1.272398 -0.162213
v 0.946263 1.319273 -0.146588
v -0.975612 1.319273 -0.146588
v 1.000950 1.381773 -0.170025
v -1.030300 1.381773 -0.170025
v 1.040013 1.334898 -0.177838
v -1.069362 1.334898 -0.177838
v 1.094700 1.358336 -0.185650
v -1.124050 1.358336 -0.185650
v 1.071263 1.420836 -0.185650
v -1.100612 1.420836 -0.185650
v 1.008763 1.584898 -0.279400
v -1.038112 1.584898 -0.279400
v 1.235325 1.616148 -0.341900
v -1.264675 1.616148 -0.341900
v 1.352513 1.444273 -0.295025
v -1.381862 1.444273 -0.295025
v 1.297825 1.202086 -0.326275
v -1.327175 1.202086 -0.326275
v 1.024388 1.061461 -0.287213
v -1.053737 1.061461 -0.287213
v 0.774388 1.022398 -0.123150
v -0.803737 1.022398 -0.123150
v 0.844700 1.530211 -0.177838
v -0.874050 1.530211 -0.177838
vn 0.6650 -0.2008 0.7194
vn -0.6650 -0.2008 0.7194
vn 0.8294 -0.3036 0.4689
vn -0.8294 -0.3036 0.4689
vn 0.4155 -0.7933 0.4449
vn -0.4155 -0.7933 0.4449
vn 0.3599 -0.5089 0.7820
vn -0.3599 -0.5089 0.7820
vn -0.0787 -0.5394 0.8384
vn 0.0787 -0.5394 0.8384
vn -0.2696 -0.8413 0.4685
vn 0.2696 -0.8413 0.4685
vn -0.7707 -0.3352 0.5420
vn 0.7707 -0.3352 0.5420
vn -0.4689 -0.1940 0.8617
vn 0.4689 -0.1940 0.8617
vn -0.4767 0.1907 0.8581
vn 0.4767 0.1907 0.8581
vn -0.7672 0.3264 0.5521
vn 0.7672 0.3264 0.5521
vn -0.2519 0.8173 0.5182
vn 0.2519 0.8173 0.5182
vn -0.0949 0.5696 0.8164
vn 0.0949 0.5696 0.8164
vn 0.3667 0.5370 0.7597
vn -0.3667 0.5370 0.7597
vn 0.4141 0.7672 0.4898
vn -0.4141 0.7672 0.4898
vn 0.8277 0.2952 0.4771
vn -0.8277 0.2952 0.4771
vn 0.6713 0.1971 0.7145
vn -0.6713 0.1971 0.7145
vn 0.8111 0.3244 -0.4867
vn -0.8111 0.3244 -0.4867
vn 0.2052 0.8206 -0.5334
vn -0.2052 0.8206 -0.5334
vn -0.4223 0.7806 -0.4607
vn 0.4223 0.7806 -0.4607
vn -0.8241 0.3225 -0.4658
vn 0.8241 0.3225 -0.4658
vn -0.8137 -0.3487 -0.4650
vn 0.8137 -0.3487 -0.4650
vn -0.4223 -0.7806 -0.4607
vn 0.4223 -0.7806 -0.4607
vn 0.2052 -0.8206 -0.5334
vn -0.2052 -0.8206 -0.5334
vn 0.7995 -0.3510 -0.4875
vn -0.7995 -0.3510 -0.4875
vn 0.4000 -0.0623 0.9144
vn -0.4000 -0.0623 0.9144
vn 0.3069 -0.1754 0.9354
vn -0.3069 -0.1754 0.9354
vn 0.0945 -0.1835 0.9785
vn -0.0945 -0.1835 0.9785
vn -0.0624 -0.0283 0.9977
vn 0.0624 -0.0283 0.9977
vn -0.0624 0.0260 0.9977
vn 0.0624 0.0260 0.9977
vn 0.0996 0.1729 0.9799
vn -0.0996 0.1729 0.9799
vn 0.3036 0.1656 0.9383
vn -0.3036 0.1656 0.9383
vn 0.4002 0.0572 0.9147
vn -0.4002 0.0572 0.9147
vn 0.1231 -0.8616 0.4924
vn -0.1231 -0.8616 0.4924
vn 0.2190 -0.8647 0.4520
vn -0.2190 -0.8647 0.4520
vn 0.5902 -0.4550 0.6668
vn -0.5902 -0.4550 0.6668
vn 0.7689 -0.0506 0.6374
vn -0.7689 -0.0506 0.6374
vn 0.7796 0.0900 0.6197
vn -0.7796 0.0900 0.6197
vn 0.3241 -0.8188 0.4739
vn -0.3241 -0.8188 0.4739
vn 0.3857 -0.6629 0.6417
vn -0.3857 -0.6629 0.6417
vn 0.6895 -0.4193 0.5906
vn -0.6895 -0.4193 0.5906
vn 0.6588 -0.3634 0.6588
vn -0.6588 -0.3634 0.6588
vn 0.5465 0.3707 0.7509
vn -0.5465 0.3707 0.7509
vn 0.5064 0.6464 0.5706
vn -0.5064 0.6464 0.5706
vn 0.6092 0.5167 0.6015
vn -0.6092 0.5167 0.6015
vn -0.0441 0.6610 0.7491
vn 0.0441 0.6610 0.7491
vn -0.7246 0.3187 0.6110
vn 0.7246 0.3187 0.6110
vn -0.5880 0.5554 0.5880
vn 0.5880 0.5554 0.5880
vn 0.5361 -0.3909 0.7482
vn -0.5361 -0.3909 0.7482
vn 0.2207 -0.4690 0.8552
vn -0.2207 -0.4690 0.8552
vn -0.0794 -0.5321 0.8429
vn 0.0794 -0.5321 0.8429
vn -0.0825 -0.6575 0.7490
vn 0.0825 -0.6575 0.7490
vn 0.0457 -0.5667 0.8226
vn -0.0457 -0.5667 0.8226
vn 0.2784 -0.2130 0.9365
vn -0.2784 -0.2130 0.9365
vn 0.3813 -0.1824 0.9063
vn -0.3813 -0.1824 0.9063
vn 0.3357 -0.2878 0.8969
vn -0.3357 -0.2878 0.8969
vn 0.3762 0.0603 0.9246
vn -0.3762 0.0603 0.9246
vn -0.1352 0.2680 0.9539
vn 0.1352 0.2680 0.9539
vn 0.3961 -0.4321 0.8102
vn -0.3961 -0.4321 0.8102
vn 0.1856 -0.2474 0.9510
vn -0.1856 -0.2474 0.9510
vn 0.0099 -0.1948 0.9808
vn -0.0099 -0.1948 0.9808
vn 0.0721 -0.6966 0.7138
vn -0.0721 -0.6966 0.7138
vn 0.1863 -0.5723 0.7986
vn -0.1863 -0.5723 0.7986
vn 0.3157 -0.2708 0.9094
vn -0.3157 -0.2708 0.9094
vn 0.3063 -0.0265 0.9516
vn -0.3063 -0.0265 0.9516
vn 0.3266 -0.1306 0.9361
vn -0.3266 -0.1306 0.9361
vn -0.0137 0.0574 0.9983
vn 0.0137 0.0574 0.9983
vn -0.0026 -0.0656 0.9978
vn 0.0026 -0.0656 0.9978
vn -0.0000 -0.0000 1.0000
vn 0.8174 -0.5744 -0.0442
vn -0.8174 -0.5744 -0.0442
vn 0.9494 0.2297 -0.2144
vn -0.9494 0.2297 -0.2144
vn 0.0825 0.9073 -0.4124
vn -0.0825 0.9073 -0.4124
vn -0.8836 0.3555 0.3047
vn 0.8836 0.3555 0.3047
vn 0.4207 -0.8797 0.2218
vn -0.4207 -0.8797 0.2218
vn 0.2873 -0.5747 0.7663
vn -0.2873 -0.5747 0.7663
vn -0.6542 0.6019 0.4580
vn 0.6542 0.6019 0.4580
vn 0.1052 0.7892 0.6051
vn -0.1052 0.7892 0.6051
vn 0.7582 0.2916 0.5832
vn -0.7582 0.2916 0.5832
vn 0.3889 -0.7130 0.5834
vn -0.3889 -0.7130 0.5834
vn 0.0463 0.2314 0.9718
vn -0.0463 0.2314 0.9718
vn 0.0335 -0.4018 0.9151
vn -0.0335 -0.4018 0.9151
vn -0.4452 -0.1610 0.8809
vn 0.4452 -0.1610 0.8809
vn -0.2182 -0.4364 0.8729
vn 0.2182 -0.4364 0.8729
vn 0.4341 -0.1290 0.8916
vn -0.4341 -0.1290 0.8916
vn 0.3008 0.0501 0.9524
vn -0.3008 0.0501 0.9524
vn 0.8123 0.3010 0.4996
vn -0.8123 0.3010 0.4996
vn 0.8753 0.2574 0.4093
vn -0.8753 0.2574 0.4093
vn 0.9385 0.1601 0.3060
vn -0.9385 0.1601 0.3060
vn 0.2237 -0.6539 0.7227
vn -0.2237 -0.6539 0.7227
vn -0.1536 -0.1997 0.9677
vn 0.1536 -0.1997 0.9677
vn -0.2733 -0.1025 0.9565
vn 0.2733 -0.1025 0.9565
vn -0.0976 0.1952 0.9759
vn 0.0976 0.1952 0.9759
vn -0.1582 0.9494 0.2713
vn 0.1582 0.9494 0.2713
vn -0.6934 0.7082 0.1328
vn 0.6934 0.7082 0.1328
vn -1.0000 -0.0000 -0.0000
vn 1.0000 -0.0000 -0.0000
vn 0.3051 -0.9450 0.1181
vn -0.3051 -0.9450 0.1181
vn 0.0298 -0.2981 0.9541
vn -0.0298 -0.2981 0.9541
vn 0.1353 -0.3479 0.9277
vn -0.1353 -0.3479 0.9277
vn -0.5085 -0.2755 0.8158
vn 0.5085 -0.2755 0.8158
vn -0.3843 -0.0419 0.9223
vn 0.3843 -0.0419 0.9223
vn -0.2083 0.0374 0.9774
vn 0.2083 0.0374 0.9774
vn -0.5721 -0.4767 0.6674
vn 0.5721 -0.4767 0.6674
vn -0.1369 -0.7531 0.6435
vn 0.1369 -0.7531 0.6435
vn 0.4088 -0.6071 0.6814
vn -0.4088 -0.6071 0.6814
vn 0.5740 -0.4130 0.7070
vn -0.5740 -0.4130 0.7070
vn 0.5665 -0.0968 0.8183
vn -0.5665 -0.0968 0.8183
vn 0.5703 0.1180 0.8129
vn -0.5703 0.1180 0.8129
vn 0.4823 0.5621 0.6719
vn -0.4823 0.5621 0.6719
vn 0.2604 0.6114 0.7473
vn -0.2604 0.6114 0.7473
vn 0.1640 0.3607 0.9182
vn -0.1640 0.3607 0.9182
vn -0.0178 0.2495 0.9682
vn 0.0178 0.2495 0.9682
vn 0.3273 -0.4166 0.8481
vn -0.3273 -0.4166 0.8481
vn 0.2811 -0.2610 0.9235
vn -0.2811 -0.2610 0.9235
vn -0.2542 -0.6514 0.7149
vn 0.2542 -0.6514 0.7149
vn -0.0260 -0.8455 0.5333
vn 0.0260 -0.8455 0.5333
vn -0.3518 -0.2606 0.8991
vn 0.3518 -0.2606 0.8991
vn -0.3523 -0.0110 0.9358
vn 0.3523 -0.0110 0.9358
vn -0.1317 0.4608 0.8777
vn 0.1317 0.4608 0.8777
vn -0.0342 0.6159 0.7870
vn 0.0342 0.6159 0.7870
vn 0.3603 0.5836 0.7277
vn -0.3603 0.5836 0.7277
vn 0.4988 0.5300 0.6858
vn -0.4988 0.5300 0.6858
vn 0.6667 -0.3333 0.6667
vn -0.6667 -0.3333 0.6667
vn 0.8165 -0.0731 0.5727
vn -0.8165 -0.0731 0.5727
vn 0.7840 0.1162 0.6098
vn -0.7840 0.1161 0.6098
vn -0.5306 0.8111 -0.2461
vn 0.5306 0.8111 -0.2461
vn -0.8511 0.3695 -0.3730
vn 0.8511 0.3695 -0.3730
vn -0.2446 0.8675 -0.4331
vn 0.2446 0.8675 -0.4331
vn 0.5924 0.7465 -0.3030
vn -0.5924 0.7465 -0.3030
vn 0.3685 0.8758 -0.3118
vn -0.3685 0.8758 -0.3118
vn 0.2821 0.9151 -0.2880
vn -0.2821 0.9151 -0.2880
vn 0.8561 0.1340 -0.4991
vn -0.8561 0.1340 -0.4991
vn 0.5342 -0.7233 -0.4376
vn -0.5342 -0.7233 -0.4376
vn 0.3849 -0.8131 -0.4368
vn -0.3849 -0.8131 -0.4368
vn 0.2335 -0.5806 -0.7800
vn -0.2335 -0.5806 -0.7800
vn 0.2449 -0.0583 -0.9678
vn -0.2449 -0.0583 -0.9678
vn 0.1163 -0.4535 -0.8837
vn -0.1163 -0.4535 -0.8837
vn 0.1152 -0.9836 -0.1388
vn -0.1152 -0.9836 -0.1388
vn 0.1184 -0.9669 -0.2260
vn -0.1184 -0.9669 -0.2260
vn 0.9597 -0.0085 -0.2808
vn -0.9597 -0.0085 -0.2808
vn 0.9319 0.1629 -0.3242
vn -0.9319 0.1629 -0.3242
vn 0.1626 0.0207 -0.9865
vn -0.1626 0.0207 -0.9865
vn -0.0188 -0.2177 -0.9758
vn 0.0188 -0.2177 -0.9758
vn 0.7538 -0.2926 -0.5884
vn -0.7538 -0.2926 -0.5884
vn 0.9196 0.1379 -0.3678
vn -0.9196 0.1379 -0.3678
vn 0.9297 0.3127 -0.1944
vn -0.9297 0.3127 -0.1944
vn 0.9120 0.3376 -0.2329
vn -0.9120 0.3376 -0.2329
vn 0.9407 0.3338 -0.0607
vn -0.9407 0.3338 -0.0607
vn 0.1761 -0.8805 -0.4402
vn -0.1761 -0.8805 -0.4402
vn 0.3708 -0.4733 -0.7991
vn -0.3708 -0.4733 -0.7991
vn 0.3107 -0.8284 -0.4660
vn -0.3107 -0.8284 -0.4660
vn 0.2793 -0.9515 -0.1287
vn -0.2793 -0.9515 -0.1287
vn 0.3139 -0.9321 -0.1807
vn -0.3139 -0.9321 -0.1807
vn 0.9762 -0.2083 -0.0609
vn -0.9762 -0.2083 -0.0609
vn 0.8267 -0.5066 0.2447
vn -0.8267 -0.5066 0.2447
vn 0.3449 -0.1158 -0.9315
vn -0.3449 -0.1158 -0.9315
vn 0.1203 0.9644 0.2355
vn -0.1203 0.9644 0.2355
vn 0.1275 0.9744 -0.1851
vn -0.1275 0.9744 -0.1851
vn 0.3492 0.5947 -0.7241
vn -0.3492 0.5947 -0.7241
vn 0.4153 0.8981 -0.1449
vn -0.4153 0.8981 -0.1449
vn 0.1845 0.7036 0.6863
vn -0.1845 0.7036 0.6863
vn 0.6056 0.7794 0.1608
vn -0.6056 0.7794 0.1608
vn 0.7033 0.6806 -0.2053
vn -0.7033 0.6806 -0.2053
vn 0.6679 0.2007 -0.7166
vn -0.6679 0.2007 -0.7166
vn 0.4948 0.4342 -0.7528
vn -0.4948 0.4342 -0.7528
vn 0.6423 0.7459 -0.1761
vn -0.6423 0.7459 -0.1761
vn 0.7182 0.6788 0.1530
vn -0.7182 0.6788 0.1530
vn 0.7388 0.3972 0.5444
vn -0.7388 0.3972 0.5444
vn 0.3428 0.9261 -0.1579
vn -0.3428 0.9261 -0.1579
vn 0.2270 0.5740 0.7867
vn -0.2270 0.5740 0.7867
vn -0.1722 0.1046 -0.9795
vn 0.1722 0.1046 -0.9795
vn 0.0425 0.9150 0.4013
vn -0.0425 0.9150 0.4013
vn -0.1616 0.1847 0.9694
vn 0.1616 0.1847 0.9694
vn 0.9791 0.1973 0.0483
vn -0.9791 0.1973 0.0483
vn 0.9470 0.0918 0.3079
vn -0.9470 0.0918 0.3079
vn 0.9794 0.1905 -0.0661
vn -0.9794 0.1905 -0.0661
vn 0.9938 0.0312 -0.1070
vn -0.9938 0.0312 -0.1070
vn 0.7116 -0.7008 0.0501
vn -0.7116 -0.7008 0.0501
vn 0.3722 -0.9243 0.0847
vn -0.3722 -0.9243 0.0847
vn 0.4465 -0.8644 0.2310
vn -0.4465 -0.8644 0.2310
vn 0.6066 -0.7578 0.2405
vn -0.6066 -0.7578 0.2405
vn 0.7325 -0.6368 0.2407
vn -0.7325 -0.6368 0.2407
vn 0.2637 -0.4499 0.8533
vn -0.2637 -0.4499 0.8533
vn 0.5568 -0.3181 -0.7673
vn -0.5568 -0.3181 -0.7673
vn 0.5004 -0.2807 -0.8190
vn -0.5004 -0.2807 -0.8190
vn 0.3190 -0.8494 -0.4205
vn -0.3190 -0.8494 -0.4205
vn 0.7198 -0.6356 -0.2793
vn -0.7198 -0.6356 -0.2793
vn 0.4972 -0.4408 -0.7473
vn -0.4972 -0.4408 -0.7473
vn 0.3506 0.3807 0.8557
vn -0.3506 0.3807 0.8557
vn 0.4566 0.1715 0.8730
vn -0.4566 0.1715 0.8730
vn 0.2583 0.1055 0.9603
vn -0.2583 0.1055 0.9603
vn 0.2455 -0.0802 0.9661
vn -0.2455 -0.0802 0.9661
vn 0.4643 -0.0599 0.8837
vn -0.4643 -0.0599 0.8837
vn 0.6225 -0.3045 0.7210
vn -0.6225 -0.3045 0.7210
vn 0.4500 0.6590 0.6027
vn -0.4500 0.6590 0.6027
vn -0.2667 0.8309 0.4884
vn 0.2667 0.8309 0.4884
vn -0.8284 0.2291 0.5111
vn 0.8284 0.2291 0.5111
vn -0.5251 -0.3566 0.7727
vn 0.5251 -0.3566 0.7727
vn 0.4546 -0.5665 0.6873
vn -0.4546 -0.5665 0.6873
vn 0.6996 -0.4497 0.5552
vn -0.6996 -0.4497 0.5552
vn 0.7220 -0.6827 -0.1126
vn -0.7220 -0.6827 -0.1126
vn -0.1919 0.2860 0.9388
vn 0.1919 0.2860 0.9388
vn 0.9048 -0.3734 -0.2047
vn -0.9048 -0.3734 -0.2047
vn 0.1034 0.1551 0.9825
vn -0.1034 0.1551 0.9825
vn 0.0841 0.9318 0.3530
vn -0.0841 0.9318 0.3530
vn 0.6446 -0.0883 0.7594
vn -0.6446 -0.0883 0.7594
vn 0.4309 0.4740 0.7678
vn -0.4309 0.4740 0.7678
vn 0.8032 -0.4847 0.3462
vn -0.8032 -0.4847 0.3462
vn 0.5811 -0.4128 0.7014
vn -0.5811 -0.4128 0.7014
vn 0.5910 -0.4305 0.6822
vn -0.5910 -0.4305 0.6822
vn 0.9818 -0.1804 -0.0591
vn -0.9818 -0.1804 -0.0591
vn 0.9105 -0.3965 -0.1175
vn -0.9105 -0.3965 -0.1175
vn 0.9972 -0.0181 -0.0725
vn -0.9972 -0.0181 -0.0725
vn 0.7313 -0.6543 0.1924
vn -0.7313 -0.6543 0.1925
vn 0.7867 -0.6079 0.1073
vn -0.7867 -0.6079 0.1073
vn 0.7022 -0.7022 0.1170
vn -0.7022 -0.7022 0.1170
vn 0.1840 0.9816 -0.0511
vn -0.1840 0.9816 -0.0511
vn 0.9352 0.3301 0.1284
vn -0.9352 0.3301 0.1284
vn 0.6633 -0.7463 0.0553
vn -0.6633 -0.7463 0.0553
vn -0.0085 0.9970 0.0767
vn 0.0085 0.9970 0.0767
vn 0.6237 -0.7061 0.3354
vn -0.6237 -0.7061 0.3354
vn 0.2733 -0.8925 0.3587
vn -0.2733 -0.8925 0.3587
vn -0.8328 -0.5080 -0.2200
vn 0.8328 -0.5080 -0.2200
vn -0.8339 0.2377 -0.4981
vn 0.8339 0.2377 -0.4981
vn -0.5655 0.7847 -0.2539
vn 0.5655 0.7847 -0.2539
vn -0.0560 0.9962 0.0672
vn 0.0560 0.9962 0.0672
vn 0.1445 0.0222 0.9893
vn -0.1445 0.0222 0.9893
vn 0.3275 0.0645 0.9427
vn -0.3275 0.0645 0.9427
vn 0.3127 0.0232 0.9496
vn -0.3127 0.0232 0.9496
vn 0.1710 0.0274 0.9849
vn -0.1710 0.0274 0.9849
vn 0.3487 0.2849 0.8929
vn -0.3487 0.2849 0.8929
vn 0.4006 -0.0343 0.9156
vn -0.4006 -0.0343 0.9156
vn 0.2572 -0.0603 0.9645
vn -0.2572 -0.0603 0.9645
vn 0.0637 -0.0106 0.9979
vn -0.0637 -0.0106 0.9979
vn -0.3637 0.7039 0.6101
vn 0.3637 0.7039 0.6101
vn 0.6299 0.0355 0.7759
vn -0.6299 0.0355 0.7759
vn 0.4472 -0.2002 0.8717
vn -0.4472 -0.2002 0.8717
vn 0.5072 -0.2141 0.8348
vn -0.5072 -0.2141 0.8348
vn 0.5258 0.2619 0.8093
vn -0.5258 0.2619 0.8093
vn 0.2980 0.5802 0.7580
vn -0.2980 0.5802 0.7580
vn 0.0930 -0.9924 -0.0805
vn -0.0930 -0.9924 -0.0805
vn 0.5006 -0.8657 0.0080
vn -0.5006 -0.8657 0.0080
vn 0.9285 -0.2497 0.2748
vn -0.9285 -0.2497 0.2748
vn 0.8393 0.5424 -0.0378
vn -0.8393 0.5424 -0.0378
vn -0.2355 0.9367 -0.2589
vn 0.2355 0.9367 -0.2589
vn -0.4499 0.8838 -0.1285
vn 0.4499 0.8838 -0.1285
vn -0.5384 -0.0098 -0.8427
vn 0.5384 -0.0098 -0.8427
vn -0.1910 -0.0241 -0.9813
vn 0.1910 -0.0241 -0.9813
vn 0.4046 0.0266 -0.9141
vn -0.4046 0.0266 -0.9141
vn -0.7819 0.6231 0.0197
vn 0.7819 0.6231 0.0197
vn 0.5428 -0.2063 -0.8142
vn -0.5428 -0.2063 -0.8142
vn -0.2474 -0.9231 -0.2945
vn 0.2474 -0.9231 -0.2945
vt 0.898516 0.615168
vt 0.889924 0.593688
vt 0.917217 0.563713
vt 0.938774 0.614911
vt 0.816475 0.815667
vt 0.842653 0.844479
vt 0.834061 0.865960
vt 0.795398 0.865726
vt 0.951453 0.532635
vt 0.985674 0.614766
vt 0.781112 0.783437
vt 0.746891 0.865568
vt 0.866019 0.542156
vt 0.865901 0.498414
vt 0.866664 0.749216
vt 0.866533 0.794590
vt 0.866296 0.585096
vt 0.866281 0.835888
vt 0.844815 0.593688
vt 0.814821 0.563713
vt 0.916591 0.815667
vt 0.887762 0.844479
vt 0.780348 0.532635
vt 0.952217 0.783437
vt 0.793264 0.614911
vt 0.746127 0.614766
vt 0.986437 0.865568
vt 0.937668 0.865726
vt 0.836223 0.615168
vt 0.896353 0.865960
vt 0.844815 0.638796
vt 0.814821 0.666108
vt 0.916591 0.915784
vt 0.887762 0.889588
vt 0.780348 0.700318
vt 0.952217 0.951120
vt 0.866019 0.687665
vt 0.865901 0.734539
vt 0.866664 0.985341
vt 0.866533 0.936861
vt 0.866296 0.647388
vt 0.866281 0.898180
vt 0.889924 0.638796
vt 0.917217 0.666108
vt 0.816475 0.915784
vt 0.842653 0.889588
vt 0.951453 0.700318
vt 0.781112 0.951120
vt 0.884573 0.633599
vt 0.890680 0.615278
vt 0.847994 0.884400
vt 0.841887 0.866078
vt 0.866252 0.641233
vt 0.866315 0.892033
vt 0.849457 0.633599
vt 0.883109 0.884400
vt 0.841823 0.615278
vt 0.890743 0.866078
vt 0.849457 0.598483
vt 0.883109 0.849284
vt 0.866252 0.590849
vt 0.866315 0.841650
vt 0.884573 0.598483
vt 0.847994 0.849284
vt 0.866252 0.615278
vt 0.866314 0.866078
vt 0.519175 0.060448
vt 0.515511 0.068449
vt 0.499236 0.064527
vt 0.499226 0.054411
vt 0.482972 0.068490
vt 0.479289 0.060503
vt 0.528933 0.064984
vt 0.521101 0.070625
vt 0.477388 0.070678
vt 0.469543 0.065062
vt 0.531361 0.067741
vt 0.524816 0.079366
vt 0.473699 0.079422
vt 0.467122 0.067822
vt 0.543230 0.082916
vt 0.527778 0.091040
vt 0.470772 0.091098
vt 0.455305 0.083023
vt 0.564295 0.115333
vt 0.536201 0.127706
vt 0.462464 0.127779
vt 0.434353 0.115495
vt 0.585741 0.171832
vt 0.625570 0.207851
vt 0.599470 0.238064
vt 0.534775 0.215506
vt 0.399530 0.238288
vt 0.373395 0.208159
vt 0.413084 0.172042
vt 0.464115 0.215568
vt 0.649992 0.239957
vt 0.636068 0.260938
vt 0.363038 0.261221
vt 0.349092 0.240294
vt 0.688725 0.268431
vt 0.655084 0.284130
vt 0.344104 0.284413
vt 0.310499 0.268805
vt 0.683826 0.317538
vt 0.658753 0.312921
vt 0.340493 0.313152
vt 0.315483 0.317795
vt 0.670653 0.334491
vt 0.648344 0.322238
vt 0.350893 0.322437
vt 0.328643 0.334694
vt 0.636036 0.370629
vt 0.612842 0.353000
vt 0.386364 0.353108
vt 0.363225 0.370732
vt 0.601484 0.395542
vt 0.593375 0.371207
vt 0.405822 0.371277
vt 0.397739 0.395588
vt 0.580245 0.398434
vt 0.576532 0.373285
vt 0.422649 0.373341
vt 0.418956 0.398468
vt 0.531177 0.387347
vt 0.538956 0.354297
vt 0.460183 0.354339
vt 0.467984 0.387365
vt 0.499576 0.382860
vt 0.499559 0.340417
vt 0.558263 0.334249
vt 0.578201 0.335550
vt 0.420943 0.335646
vt 0.440865 0.334326
vt 0.591245 0.332772
vt 0.407910 0.332885
vt 0.605328 0.325379
vt 0.393837 0.325516
vt 0.627435 0.311447
vt 0.371749 0.311636
vt 0.634730 0.300287
vt 0.364449 0.300507
vt 0.630627 0.283646
vt 0.368516 0.283889
vt 0.610403 0.264181
vt 0.388669 0.264411
vt 0.591398 0.254700
vt 0.407628 0.254897
vt 0.558690 0.267603
vt 0.440331 0.267717
vt 0.549915 0.277739
vt 0.499486 0.252445
vt 0.449122 0.277832
vt 0.543096 0.314455
vt 0.455999 0.314523
vt 0.499529 0.295691
vt 0.542701 0.293295
vt 0.456363 0.293371
vt 0.505317 0.075368
vt 0.499246 0.073497
vt 0.493181 0.075382
vt 0.510294 0.080611
vt 0.488218 0.080633
vt 0.510719 0.093440
vt 0.487828 0.093457
vt 0.512928 0.133399
vt 0.512434 0.097171
vt 0.486126 0.097191
vt 0.485743 0.133422
vt 0.518981 0.164589
vt 0.499367 0.157864
vt 0.499336 0.134352
vt 0.479774 0.164615
vt 0.499284 0.100063
vt 0.499269 0.091346
vt 0.529057 0.180195
vt 0.520697 0.181536
vt 0.516438 0.172335
vt 0.482334 0.172353
vt 0.478099 0.181560
vt 0.469742 0.180239
vt 0.522516 0.198783
vt 0.517786 0.194706
vt 0.481043 0.194728
vt 0.476327 0.198817
vt 0.499425 0.203867
vt 0.507044 0.197287
vt 0.491789 0.197295
vt 0.499416 0.197278
vt 0.499409 0.192167
vt 0.499375 0.165170
vt 0.512319 0.176937
vt 0.499383 0.171718
vt 0.486462 0.176949
vt 0.499401 0.186182
vt 0.507638 0.192399
vt 0.491182 0.192407
vt 0.514048 0.190694
vt 0.484768 0.190709
vt 0.515702 0.181858
vt 0.483092 0.181873
vt 0.542999 0.172734
vt 0.455791 0.172814
vt 0.540067 0.154824
vt 0.458673 0.154899
vt 0.577388 0.138981
vt 0.421339 0.139176
vt 0.582019 0.153952
vt 0.416755 0.154155
vt 0.499267 0.089977
vt 0.508449 0.090711
vt 0.490089 0.090724
vt 0.508228 0.082219
vt 0.490287 0.082236
vt 0.503697 0.077074
vt 0.494804 0.077083
vt 0.499248 0.075473
vt 0.501954 0.080835
vt 0.499254 0.080320
vt 0.496555 0.080840
vt 0.504281 0.083193
vt 0.494235 0.083202
vt 0.505348 0.086781
vt 0.493178 0.086791
vt 0.499261 0.085637
vt 0.561415 0.284224
vt 0.558262 0.294780
vt 0.437639 0.284338
vt 0.440810 0.294882
vt 0.562274 0.307050
vt 0.436820 0.307151
vt 0.569573 0.318594
vt 0.429542 0.318697
vt 0.568290 0.278113
vt 0.430757 0.278245
vt 0.588970 0.271589
vt 0.410086 0.271772
vt 0.601274 0.276977
vt 0.397810 0.277180
vt 0.616235 0.286959
vt 0.382890 0.287175
vt 0.617221 0.299000
vt 0.381926 0.299197
vt 0.615028 0.307259
vt 0.384129 0.307438
vt 0.597564 0.313582
vt 0.401576 0.313725
vt 0.589965 0.319671
vt 0.409172 0.319797
vt 0.581259 0.320877
vt 0.417870 0.320991
vt 0.577724 0.309274
vt 0.583117 0.312767
vt 0.421385 0.309394
vt 0.416002 0.312892
vt 0.588782 0.312203
vt 0.410344 0.312336
vt 0.595478 0.309103
vt 0.403653 0.309249
vt 0.605147 0.302344
vt 0.393986 0.302517
vt 0.606862 0.297335
vt 0.392265 0.297520
vt 0.606100 0.291021
vt 0.393015 0.291216
vt 0.597364 0.282892
vt 0.401725 0.283083
vt 0.588939 0.279989
vt 0.410134 0.280167
vt 0.575416 0.284480
vt 0.423648 0.284624
vt 0.571900 0.289783
vt 0.427169 0.289915
vt 0.572399 0.303223
vt 0.426693 0.303342
vt 0.571526 0.295591
vt 0.427553 0.295716
vt 0.528820 0.428638
vt 0.499582 0.428449
vt 0.470353 0.428636
vt 0.583835 0.428591
vt 0.415384 0.428598
vt 0.621564 0.417863
vt 0.377699 0.417889
vt 0.665541 0.388861
vt 0.333786 0.388954
vt 0.700852 0.344252
vt 0.298519 0.344467
vt 0.711534 0.315224
vt 0.287837 0.315527
vt 0.703543 0.259804
vt 0.295695 0.260225
vt 0.672036 0.224472
vt 0.327053 0.224880
vt 0.639461 0.198488
vt 0.359503 0.198841
vt 0.601923 0.023020
vt 0.623531 0.028944
vt 0.634365 0.081724
vt 0.597102 0.056491
vt 0.364247 0.082198
vt 0.374872 0.029461
vt 0.396447 0.023452
vt 0.401383 0.056841
vt 0.545071 0.009261
vt 0.554761 0.040719
vt 0.453219 0.009442
vt 0.443646 0.040906
vt 0.499203 0.033223
vt 0.525595 0.049432
vt 0.472841 0.049514
vt 0.535690 0.060692
vt 0.462778 0.060794
vt 0.556987 0.064968
vt 0.441501 0.065137
vt 0.586699 0.084908
vt 0.411873 0.085177
vt 0.605919 0.113619
vt 0.392761 0.113940
vt 0.611410 0.133352
vt 0.604255 0.151220
vt 0.394533 0.151503
vt 0.387337 0.133675
vt 0.599523 0.162726
vt 0.399292 0.162985
vt 0.921561 0.062683
vt 0.858848 0.116790
vt 0.822344 0.100435
vt 0.860246 0.025793
vt 0.176713 0.101559
vt 0.140353 0.117994
vt 0.077626 0.064228
vt 0.138658 0.027230
vt 0.764738 0.086041
vt 0.773234 0.009669
vt 0.234137 0.087001
vt 0.225396 0.010837
vt 0.660621 0.086994
vt 0.645431 0.028106
vt 0.338048 0.087561
vt 0.352990 0.028716
vt 0.742764 0.197916
vt 0.765725 0.232421
vt 0.256408 0.198572
vt 0.233590 0.233065
vt 0.987287 0.152728
vt 0.888944 0.176456
vt 0.110522 0.177602
vt 0.012367 0.154243
vt 0.900013 0.420388
vt 0.844154 0.346818
vt 0.881002 0.308389
vt 0.959159 0.356531
vt 0.118831 0.309153
vt 0.155683 0.347370
vt 0.100193 0.420886
vt 0.041037 0.357385
vt 0.903058 0.260405
vt 0.999860 0.252255
vt 0.096698 0.261367
vt 0.000140 0.253531
vt 0.724230 0.339961
vt 0.744163 0.304222
vt 0.765650 0.319075
vt 0.255275 0.304629
vt 0.275237 0.340212
vt 0.233887 0.319494
vt 0.792936 0.279898
vt 0.826311 0.297169
vt 0.206573 0.280495
vt 0.173337 0.297810
vt 0.823141 0.253863
vt 0.854975 0.267153
vt 0.176380 0.254612
vt 0.144669 0.267956
vt 0.835330 0.224364
vt 0.867888 0.232592
vt 0.164140 0.225225
vt 0.131691 0.233525
vt 0.812814 0.189821
vt 0.850667 0.180124
vt 0.148712 0.181145
vt 0.186501 0.190705
vt 0.771964 0.373733
vt 0.227737 0.374010
vt 0.744181 0.389903
vt 0.255481 0.390057
vt 0.824891 0.470849
vt 0.175235 0.470987
vt 0.792153 0.464650
vt 0.742036 0.461609
vt 0.726584 0.432597
vt 0.273145 0.432574
vt 0.257819 0.461543
vt 0.207859 0.464714
vt 0.795638 0.489991
vt 0.204362 0.489991
vt 0.785486 0.227075
vt 0.213863 0.227788
vt 0.802275 0.202593
vt 0.197050 0.203415
vt 0.768354 0.127888
vt 0.690398 0.146106
vt 0.230666 0.128771
vt 0.308516 0.146686
vt 0.779285 0.168550
vt 0.219887 0.169386
vt 0.803020 0.170278
vt 0.830115 0.138457
vt 0.169083 0.139518
vt 0.196211 0.171181
vt 0.560056 0.957116
vt 0.449940 0.959188
vt 0.462753 0.891851
vt 0.530867 0.884581
vt 0.272722 0.891853
vt 0.285528 0.959188
vt 0.175421 0.957118
vt 0.204610 0.884582
vt 0.590562 0.846978
vt 0.701323 0.897070
vt 0.144915 0.846977
vt 0.034155 0.897069
vt 0.590787 0.784411
vt 0.669298 0.757013
vt 0.144687 0.784410
vt 0.066170 0.757009
vt 0.560262 0.744213
vt 0.603293 0.719157
vt 0.175212 0.744211
vt 0.132179 0.719155
vt 0.520423 0.712528
vt 0.554154 0.682132
vt 0.215052 0.712528
vt 0.181319 0.682131
vt 0.468433 0.686792
vt 0.493965 0.641024
vt 0.267042 0.686791
vt 0.241508 0.641024
vt 0.498843 0.736977
vt 0.464308 0.719593
vt 0.271168 0.719592
vt 0.236633 0.736977
vt 0.526545 0.760754
vt 0.208931 0.760754
vt 0.543027 0.789442
vt 0.192449 0.789442
vt 0.539269 0.821849
vt 0.196208 0.821849
vt 0.510099 0.842380
vt 0.225378 0.842380
vt 0.470621 0.845320
vt 0.264856 0.845322
vt 0.785370 0.180300
vt 0.769420 0.190471
vt 0.213850 0.181127
vt 0.229792 0.191225
vt 0.393578 0.587505
vt 0.395036 0.674023
vt 0.341892 0.587509
vt 0.340437 0.674021
vt 0.385726 0.910555
vt 0.399584 0.878316
vt 0.335895 0.878320
vt 0.349744 0.910558
vt 0.429058 0.713731
vt 0.306418 0.713731
vt 0.415153 0.728622
vt 0.378240 0.710772
vt 0.357237 0.710776
vt 0.320324 0.728623
vt 0.408407 0.754607
vt 0.418068 0.746526
vt 0.327070 0.754610
vt 0.317409 0.746528
vt 0.413147 0.796172
vt 0.377006 0.815186
vt 0.358471 0.815189
vt 0.322330 0.796174
vt 0.433705 0.830975
vt 0.301772 0.830977
vt 0.797000 0.194826
vt 0.801893 0.198928
vt 0.197420 0.199758
vt 0.202290 0.195652
vt 0.788848 0.183842
vt 0.210391 0.184671
vt 0.451471 0.804090
vt 0.475926 0.816075
vt 0.284007 0.804092
vt 0.259551 0.816076
vt 0.433470 0.783920
vt 0.302007 0.783922
vt 0.424174 0.764959
vt 0.311304 0.764961
vt 0.430644 0.756350
vt 0.304833 0.756352
vt 0.435247 0.743457
vt 0.300230 0.743459
vt 0.441735 0.732686
vt 0.293742 0.732687
vt 0.460899 0.740871
vt 0.274578 0.740871
vt 0.499639 0.817768
vt 0.235838 0.817769
vt 0.513389 0.808597
vt 0.222088 0.808598
vt 0.515507 0.790754
vt 0.219970 0.790754
vt 0.504048 0.772385
vt 0.231428 0.772385
vt 0.484096 0.755033
vt 0.251380 0.755033
vt 0.453457 0.756171
vt 0.445088 0.770458
vt 0.282020 0.756172
vt 0.290389 0.770460
vt 0.472595 0.769899
vt 0.462782 0.785392
vt 0.262882 0.769899
vt 0.272695 0.785393
vt 0.490045 0.782999
vt 0.481973 0.797121
vt 0.245432 0.782999
vt 0.253504 0.797122
vt 0.501565 0.792591
vt 0.499142 0.804019
vt 0.233912 0.792591
vt 0.236336 0.804020
vt 0.559696 0.607669
vt 0.598936 0.655817
vt 0.175778 0.607667
vt 0.136537 0.655816
vt 0.629457 0.693271
vt 0.106015 0.693269
vt 0.653588 0.712098
vt 0.081883 0.712096
vt 0.712556 0.698473
vt 0.662010 0.686010
vt 0.022915 0.698478
vt 0.073462 0.686010
vt 0.715231 0.624373
vt 0.652439 0.640199
vt 0.020244 0.624367
vt 0.083034 0.640197
vt 0.706720 0.572934
vt 0.633578 0.594596
vt 0.028756 0.572934
vt 0.101895 0.594596
vt 0.615458 0.557583
vt 0.703133 0.538140
vt 0.032336 0.538145
vt 0.120011 0.557584
vt 0.512305 0.539237
vt 0.223171 0.539233
s 0
usemtl Material.001
f 47/1/1 1/2/1 3/3/1 45/4/1
f 4/5/2 2/6/2 48/7/2 46/8/2
f 45/4/3 3/3/3 5/9/3 43/10/3
f 6/11/4 4/5/4 46/8/4 44/12/4
f 3/3/5 9/13/5 7/14/5 5/9/5
f 8/15/6 10/16/6 4/5/6 6/11/6
f 1/2/7 11/17/7 9/13/7 3/3/7
f 10/16/8 12/18/8 2/6/8 4/5/8
f 11/17/9 13/19/9 15/20/9 9/13/9
f 16/21/10 14/22/10 12/18/10 10/16/10
f 9/13/11 15/20/11 17/23/11 7/14/11
f 18/24/12 16/21/12 10/16/12 8/15/12
f 15/20/13 21/25/13 19/26/13 17/23/13
f 20/27/14 22/28/14 16/21/14 18/24/14
f 13/19/15 23/29/15 21/25/15 15/20/15
f 22/28/16 24/30/16 14/22/16 16/21/16
f 23/29/17 25/31/17 27/32/17 21/25/17
f 28/33/18 26/34/18 24/30/18 22/28/18
f 21/25/19 27/32/19 29/35/19 19/26/19
f 30/36/20 28/33/20 22/28/20 20/27/20
f 27/32/21 33/37/21 31/38/21 29/35/21
f 32/39/22 34/40/22 28/33/22 30/36/22
f 25/31/23 35/41/23 33/37/23 27/32/23
f 34/40/24 36/42/24 26/34/24 28/33/24
f 35/41/25 37/43/25 39/44/25 33/37/25
f 40/45/26 38/46/26 36/42/26 34/40/26
f 33/37/27 39/44/27 41/47/27 31/38/27
f 42/48/28 40/45/28 34/40/28 32/39/28
f 39/44/29 45/4/29 43/10/29 41/47/29
f 44/12/30 46/8/30 40/45/30 42/48/30
f 37/43/31 47/1/31 45/4/31 39/44/31
f 46/8/32 48/7/32 38/46/32 40/45/32
f 47/1/33 37/43/33 51/49/33 49/50/33
f 52/51/34 38/46/34 48/7/34 50/52/34
f 37/43/35 35/41/35 53/53/35 51/49/35
f 54/54/36 36/42/36 38/46/36 52/51/36
f 35/41/37 25/31/37 55/55/37 53/53/37
f 56/56/38 26/34/38 36/42/38 54/54/38
f 25/31/39 23/29/39 57/57/39 55/55/39
f 58/58/40 24/30/40 26/34/40 56/56/40
f 23/29/41 13/19/41 59/59/41 57/57/41
f 60/60/42 14/22/42 24/30/42 58/58/42
f 13/19/43 11/17/43 63/61/43 59/59/43
f 64/62/44 12/18/44 14/22/44 60/60/44
f 11/17/45 1/2/45 65/63/45 63/61/45
f 66/64/46 2/6/46 12/18/46 64/62/46
f 1/2/47 47/1/47 49/50/47 65/63/47
f 50/52/48 48/7/48 2/6/48 66/64/48
f 61/65/49 65/63/49 49/50/49
f 50/52/50 66/64/50 62/66/50
f 63/61/51 65/63/51 61/65/51
f 62/66/52 66/64/52 64/62/52
f 61/65/53 59/59/53 63/61/53
f 64/62/54 60/60/54 62/66/54
f 61/65/55 57/57/55 59/59/55
f 60/60/56 58/58/56 62/66/56
f 61/65/57 55/55/57 57/57/57
f 58/58/58 56/56/58 62/66/58
f 61/65/59 53/53/59 55/55/59
f 56/56/60 54/54/60 62/66/60
f 61/65/61 51/49/61 53/53/61
f 54/54/62 52/51/62 62/66/62
f 61/65/63 49/50/63 51/49/63
f 52/51/64 50/52/64 62/66/64
f 89/67/65 174/68/65 176/69/65 91/70/65
f 176/69/66 175/71/66 90/72/66 91/70/66
f 87/73/67 172/74/67 174/68/67 89/67/67
f 175/71/68 173/75/68 88/76/68 90/72/68
f 85/77/69 170/78/69 172/74/69 87/73/69
f 173/75/70 171/79/70 86/80/70 88/76/70
f 83/81/71 168/82/71 170/78/71 85/77/71
f 171/79/72 169/83/72 84/84/72 86/80/72
f 81/85/73 166/86/73 168/82/73 83/81/73
f 169/83/74 167/87/74 82/88/74 84/84/74
f 79/89/75 92/90/75 146/91/75 164/92/75
f 147/93/76 93/94/76 80/95/76 165/96/76
f 92/90/77 94/97/77 148/98/77 146/91/77
f 149/99/78 95/100/78 93/94/78 147/93/78
f 94/97/79 96/101/79 150/102/79 148/98/79
f 151/103/80 97/104/80 95/100/80 149/99/80
f 96/101/81 98/105/81 152/106/81 150/102/81
f 153/107/82 99/108/82 97/104/82 151/103/82
f 98/105/83 100/109/83 154/110/83 152/106/83
f 155/111/84 101/112/84 99/108/84 153/107/84
f 100/109/85 102/113/85 156/114/85 154/110/85
f 157/115/86 103/116/86 101/112/86 155/111/86
f 102/113/87 104/117/87 158/118/87 156/114/87
f 159/119/88 105/120/88 103/116/88 157/115/88
f 104/117/89 106/121/89 160/122/89 158/118/89
f 161/123/90 107/124/90 105/120/90 159/119/90
f 106/121/91 108/125/91 162/126/91 160/122/91
f 163/127/92 109/128/92 107/124/92 161/123/92
f 108/125/93 67/129/93 68/130/93 162/126/93
f 68/130/94 67/129/94 109/128/94 163/127/94
f 110/131/95 128/132/95 160/122/95 162/126/95
f 161/123/96 129/133/96 111/134/96 163/127/96
f 128/132/97 179/135/97 158/118/97 160/122/97
f 159/119/98 180/136/98 129/133/98 161/123/98
f 126/137/99 156/114/99 158/118/99 179/135/99
f 159/119/100 157/115/100 127/138/100 180/136/100
f 124/139/101 154/110/101 156/114/101 126/137/101
f 157/115/102 155/111/102 125/140/102 127/138/102
f 122/141/103 152/106/103 154/110/103 124/139/103
f 155/111/104 153/107/104 123/142/104 125/140/104
f 120/143/105 150/102/105 152/106/105 122/141/105
f 153/107/106 151/103/106 121/144/106 123/142/106
f 118/145/107 148/98/107 150/102/107 120/143/107
f 151/103/108 149/99/108 119/146/108 121/144/108
f 116/147/109 146/91/109 148/98/109 118/145/109
f 149/99/110 147/93/110 117/148/110 119/146/110
f 114/149/111 164/92/111 146/91/111 116/147/111
f 147/93/112 165/96/112 115/150/112 117/148/112
f 114/149/113 181/151/113 177/152/113 164/92/113
f 177/152/114 182/153/114 115/150/114 165/96/114
f 110/131/115 162/126/115 68/130/115 112/154/115
f 68/130/116 163/127/116 111/134/116 113/155/116
f 112/154/117 68/130/117 178/156/117 183/157/117
f 178/156/118 68/130/118 113/155/118 184/158/118
f 177/152/119 181/151/119 183/157/119 178/156/119
f 184/158/120 182/153/120 177/152/120 178/156/120
f 135/159/121 137/160/121 176/69/121 174/68/121
f 176/69/122 137/160/122 136/161/122 175/71/122
f 133/162/123 135/159/123 174/68/123 172/74/123
f 175/71/124 136/161/124 134/163/124 173/75/124
f 131/164/125 133/162/125 172/74/125 170/78/125
f 173/75/126 134/163/126 132/165/126 171/79/126
f 166/86/127 187/166/127 185/167/127 168/82/127
f 186/168/128 188/169/128 167/87/128 169/83/128
f 131/164/129 170/78/129 168/82/129 185/167/129
f 169/83/130 171/79/130 132/165/130 186/168/130
f 144/170/131 190/171/131 189/172/131 187/166/131
f 189/172/132 190/171/132 145/173/132 188/169/132
f 185/167/133 187/166/133 189/172/133 69/174/133
f 189/172/134 188/169/134 186/168/134 69/174/134
f 130/175/135 131/164/135 185/167/135 69/174/135
f 186/168/135 132/165/135 130/175/135 69/174/135
f 142/176/136 193/177/136 191/178/136 144/170/136
f 192/179/137 194/180/137 143/181/137 145/173/137
f 140/182/138 195/183/138 193/177/138 142/176/138
f 194/180/139 196/184/139 141/185/139 143/181/139
f 139/186/140 197/187/140 195/183/140 140/182/140
f 196/184/141 198/188/141 139/186/141 141/185/141
f 138/189/142 71/190/142 197/187/142 139/186/142
f 198/188/143 71/190/143 138/189/143 139/186/143
f 190/171/144 144/170/144 191/178/144 70/191/144
f 192/179/145 145/173/145 190/171/145 70/191/145
f 70/191/146 191/178/146 206/192/146 208/193/146
f 207/194/147 192/179/147 70/191/147 208/193/147
f 71/190/148 199/195/148 200/196/148 197/187/148
f 201/197/149 199/195/149 71/190/149 198/188/149
f 197/187/150 200/196/150 202/198/150 195/183/150
f 203/199/151 201/197/151 198/188/151 196/184/151
f 195/183/152 202/198/152 204/200/152 193/177/152
f 205/201/153 203/199/153 196/184/153 194/180/153
f 193/177/154 204/200/154 206/192/154 191/178/154
f 207/194/155 205/201/155 194/180/155 192/179/155
f 199/195/156 204/200/156 202/198/156 200/196/156
f 203/199/157 205/201/157 199/195/157 201/197/157
f 199/195/158 208/193/158 206/192/158 204/200/158
f 207/194/159 208/193/159 199/195/159 205/201/159
f 139/186/160 140/182/160 164/92/160 177/152/160
f 165/96/161 141/185/161 139/186/161 177/152/161
f 140/182/162 142/176/162 211/202/162 164/92/162
f 212/203/163 143/181/163 141/185/163 165/96/163
f 142/176/164 144/170/164 213/204/164 211/202/164
f 214/205/165 145/173/165 143/181/165 212/203/165
f 144/170/166 187/166/166 166/86/166 213/204/166
f 167/87/167 188/169/167 145/173/167 214/205/167
f 81/85/168 209/206/168 213/204/168 166/86/168
f 214/205/169 210/207/169 82/88/169 167/87/169
f 209/206/170 215/208/170 211/202/170 213/204/170
f 212/203/171 216/209/171 210/207/171 214/205/171
f 79/89/172 164/92/172 211/202/172 215/208/172
f 212/203/173 165/96/173 80/95/173 216/209/173
f 131/164/174 130/175/174 72/210/174 222/211/174
f 72/210/175 130/175/175 132/165/175 223/212/175
f 133/162/176 131/164/176 222/211/176 220/213/176
f 223/212/177 132/165/177 134/163/177 221/214/177
f 135/159/178 133/162/178 220/213/178 218/215/178
f 221/214/179 134/163/179 136/161/179 219/216/179
f 137/160/180 135/159/180 218/215/180 217/217/180
f 219/216/181 136/161/181 137/160/181 217/217/181
f 217/217/182 218/215/182 229/218/182 231/219/182
f 230/220/183 219/216/183 217/217/183 231/219/183
f 218/215/184 220/213/184 227/221/184 229/218/184
f 228/222/185 221/214/185 219/216/185 230/220/185
f 220/213/186 222/211/186 225/223/186 227/221/186
f 226/224/187 223/212/187 221/214/187 228/222/187
f 222/211/188 72/210/188 224/225/188 225/223/188
f 224/225/189 72/210/189 223/212/189 226/224/189
f 224/225/190 231/219/190 229/218/190 225/223/190
f 230/220/191 231/219/191 224/225/191 226/224/191
f 225/223/192 229/218/192 227/221/192
f 228/222/193 230/220/193 226/224/193
f 183/157/194 181/151/194 234/226/194 232/227/194
f 235/228/195 182/153/195 184/158/195 233/229/195
f 112/154/196 183/157/196 232/227/196 254/230/196
f 233/229/197 184/158/197 113/155/197 255/231/197
f 110/131/198 112/154/198 254/230/198 256/232/198
f 255/231/199 113/155/199 111/134/199 257/233/199
f 181/151/200 114/149/200 252/234/200 234/226/200
f 253/235/201 115/150/201 182/153/201 235/228/201
f 114/149/202 116/147/202 250/236/202 252/234/202
f 251/237/203 117/148/203 115/150/203 253/235/203
f 116/147/204 118/145/204 248/238/204 250/236/204
f 249/239/205 119/146/205 117/148/205 251/237/205
f 118/145/206 120/143/206 246/240/206 248/238/206
f 247/241/207 121/144/207 119/146/207 249/239/207
f 120/143/208 122/141/208 244/242/208 246/240/208
f 245/243/209 123/142/209 121/144/209 247/241/209
f 122/141/210 124/139/210 242/244/210 244/242/210
f 243/245/211 125/140/211 123/142/211 245/243/211
f 124/139/212 126/137/212 240/246/212 242/244/212
f 241/247/213 127/138/213 125/140/213 243/245/213
f 126/137/214 179/135/214 236/248/214 240/246/214
f 237/249/215 180/136/215 127/138/215 241/247/215
f 179/135/216 128/132/216 238/250/216 236/248/216
f 239/251/217 129/133/217 180/136/217 237/249/217
f 128/132/218 110/131/218 256/232/218 238/250/218
f 257/233/219 111/134/219 129/133/219 239/251/219
f 238/250/220 256/232/220 258/252/220 276/253/220
f 259/254/221 257/233/221 239/251/221 277/255/221
f 236/248/222 238/250/222 276/253/222 278/256/222
f 277/255/223 239/251/223 237/249/223 279/257/223
f 240/246/224 236/248/224 278/256/224 274/258/224
f 279/257/225 237/249/225 241/247/225 275/259/225
f 242/244/226 240/246/226 274/258/226 272/260/226
f 275/259/227 241/247/227 243/245/227 273/261/227
f 244/242/228 242/244/228 272/260/228 270/262/228
f 273/261/229 243/245/229 245/243/229 271/263/229
f 246/240/230 244/242/230 270/262/230 268/264/230
f 271/263/231 245/243/231 247/241/231 269/265/231
f 248/238/232 246/240/232 268/264/232 266/266/232
f 269/265/233 247/241/233 249/239/233 267/267/233
f 250/236/234 248/238/234 266/266/234 264/268/234
f 267/267/235 249/239/235 251/237/235 265/269/235
f 252/234/236 250/236/236 264/268/236 262/270/236
f 265/269/237 251/237/237 253/235/237 263/271/237
f 234/226/238 252/234/238 262/270/238 280/272/238
f 263/271/239 253/235/239 235/228/239 281/273/239
f 256/232/240 254/230/240 260/274/240 258/252/240
f 261/275/241 255/231/241 257/233/241 259/254/241
f 254/230/242 232/227/242 282/276/242 260/274/242
f 283/277/243 233/229/243 255/231/243 261/275/243
f 232/227/244 234/226/244 280/272/244 282/276/244
f 281/273/245 235/228/245 233/229/245 283/277/245
f 67/129/246 108/125/246 284/278/246 73/279/246
f 285/280/247 109/128/247 67/129/247 73/279/247
f 108/125/248 106/121/248 286/281/248 284/278/248
f 287/282/249 107/124/249 109/128/249 285/280/249
f 106/121/250 104/117/250 288/283/250 286/281/250
f 289/284/251 105/120/251 107/124/251 287/282/251
f 104/117/252 102/113/252 290/285/252 288/283/252
f 291/286/253 103/116/253 105/120/253 289/284/253
f 102/113/254 100/109/254 292/287/254 290/285/254
f 293/288/255 101/112/255 103/116/255 291/286/255
f 100/109/256 98/105/256 294/289/256 292/287/256
f 295/290/257 99/108/257 101/112/257 293/288/257
f 98/105/258 96/101/258 296/291/258 294/289/258
f 297/292/259 97/104/259 99/108/259 295/290/259
f 96/101/260 94/97/260 298/293/260 296/291/260
f 299/294/261 95/100/261 97/104/261 297/292/261
f 94/97/262 92/90/262 300/295/262 298/293/262
f 301/296/263 93/94/263 95/100/263 299/294/263
f 308/297/264 309/298/264 328/299/264 338/300/264
f 329/301/265 309/302/265 308/303/265 339/304/265
f 307/305/266 308/297/266 338/300/266 336/306/266
f 339/304/267 308/303/267 307/307/267 337/308/267
f 306/309/268 307/305/268 336/306/268 340/310/268
f 337/308/269 307/307/269 306/309/269 341/311/269
f 89/67/270 91/70/270 306/309/270 340/310/270
f 306/309/271 91/70/271 90/72/271 341/311/271
f 87/73/272 89/67/272 340/310/272 334/312/272
f 341/311/273 90/72/273 88/76/273 335/313/273
f 85/77/274 87/73/274 334/312/274 330/314/274
f 335/313/275 88/76/275 86/80/275 331/315/275
f 83/81/276 85/77/276 330/314/276 332/316/276
f 331/315/277 86/80/277 84/84/277 333/317/277
f 330/314/278 336/306/278 338/300/278 332/316/278
f 339/304/279 337/308/279 331/315/279 333/317/279
f 330/314/280 334/312/280 340/310/280 336/306/280
f 341/311/281 335/313/281 331/315/281 337/308/281
f 326/318/282 332/316/282 338/300/282 328/299/282
f 339/304/283 333/317/283 327/319/283 329/301/283
f 81/85/284 83/81/284 332/316/284 326/318/284
f 333/317/285 84/84/285 82/88/285 327/319/285
f 209/206/286 342/320/286 344/321/286 215/208/286
f 345/322/287 343/323/287 210/207/287 216/209/287
f 81/85/288 326/318/288 342/320/288 209/206/288
f 343/323/289 327/319/289 82/88/289 210/207/289
f 79/89/290 215/208/290 344/321/290 346/324/290
f 345/322/291 216/209/291 80/95/291 347/325/291
f 79/89/292 346/324/292 300/295/292 92/90/292
f 301/296/293 347/325/293 80/95/293 93/94/293
f 77/326/294 324/327/294 352/328/294 304/329/294
f 353/330/295 325/331/295 77/332/295 304/333/295
f 304/329/296 352/328/296 350/334/296 78/335/296
f 351/336/297 353/330/297 304/333/297 78/337/297
f 78/335/298 350/334/298 348/338/298 305/339/298
f 349/340/299 351/336/299 78/337/299 305/341/299
f 305/339/300 348/338/300 328/299/300 309/298/300
f 329/301/301 349/340/301 305/341/301 309/302/301
f 326/318/302 328/299/302 348/338/302 342/320/302
f 349/340/303 329/301/303 327/319/303 343/323/303
f 296/291/304 298/293/304 318/342/304 310/343/304
f 319/344/305 299/294/305 297/292/305 311/345/305
f 76/346/306 316/347/306 324/327/306 77/326/306
f 325/331/307 317/348/307 76/349/307 77/332/307
f 302/350/308 358/351/308 356/352/308 303/353/308
f 357/354/309 359/355/309 302/356/309 303/357/309
f 303/353/310 356/352/310 354/358/310 75/359/310
f 355/360/311 357/354/311 303/357/311 75/361/311
f 75/359/312 354/358/312 316/347/312 76/346/312
f 317/348/313 355/360/313 75/361/313 76/349/313
f 292/362/314 294/289/314 362/363/314 364/364/314
f 363/365/315 295/290/315 293/366/315 365/367/315
f 364/364/316 362/363/316 368/368/316 366/369/316
f 369/370/317 363/365/317 365/367/317 367/371/317
f 366/369/318 368/368/318 370/372/318 372/373/318
f 371/374/319 369/370/319 367/371/319 373/375/319
f 372/373/320 370/372/320 376/376/320 374/377/320
f 377/378/321 371/374/321 373/375/321 375/379/321
f 314/380/322 378/381/322 374/377/322 376/376/322
f 375/379/323 379/382/323 315/383/323 377/378/323
f 316/347/324 354/358/324 374/377/324 378/381/324
f 375/379/325 355/360/325 317/348/325 379/382/325
f 354/358/326 356/352/326 372/373/326 374/377/326
f 373/375/327 357/354/327 355/360/327 375/379/327
f 356/352/328 358/351/328 366/369/328 372/373/328
f 367/371/329 359/355/329 357/354/329 373/375/329
f 358/351/330 360/384/330 364/364/330 366/369/330
f 365/367/331 361/385/331 359/355/331 367/371/331
f 290/386/332 292/362/332 364/364/332 360/384/332
f 365/367/333 293/366/333 291/387/333 361/385/333
f 74/388/334 360/384/334 358/351/334 302/350/334
f 359/355/335 361/385/335 74/389/335 302/356/335
f 284/390/336 286/391/336 288/392/336 290/386/336
f 289/393/337 287/394/337 285/395/337 291/387/337
f 284/390/338 290/386/338 360/384/338 74/388/338
f 361/385/339 291/387/339 285/395/339 74/389/339
f 73/396/340 284/390/340 74/388/340
f 74/389/341 285/395/341 73/397/341
f 294/289/342 296/291/342 310/343/342 362/363/342
f 311/345/343 297/292/343 295/290/343 363/365/343
f 310/343/344 312/398/344 368/368/344 362/363/344
f 369/370/345 313/399/345 311/345/345 363/365/345
f 312/398/346 382/400/346 370/372/346 368/368/346
f 371/374/347 383/401/347 313/399/347 369/370/347
f 314/380/348 376/376/348 370/372/348 382/400/348
f 371/374/349 377/378/349 315/383/349 383/401/349
f 348/338/350 350/334/350 386/402/350 384/403/350
f 387/404/351 351/336/351 349/340/351 385/405/351
f 318/342/352 384/403/352 386/402/352 320/406/352
f 387/404/353 385/405/353 319/344/353 321/407/353
f 298/293/354 300/295/354 384/403/354 318/342/354
f 385/405/355 301/296/355 299/294/355 319/344/355
f 300/295/356 344/321/356 342/320/356 384/403/356
f 343/323/357 345/322/357 301/296/357 385/405/357
f 342/320/358 348/338/358 384/403/358
f 385/405/359 349/340/359 343/323/359
f 300/295/360 346/324/360 344/321/360
f 345/322/361 347/325/361 301/296/361
f 314/380/362 322/408/362 380/409/362 378/381/362
f 381/410/363 323/411/363 315/383/363 379/382/363
f 316/347/364 378/381/364 380/409/364 324/327/364
f 381/410/365 379/382/365 317/348/365 325/331/365
f 320/406/366 386/402/366 380/409/366 322/408/366
f 381/410/367 387/404/367 321/407/367 323/411/367
f 350/334/368 352/328/368 380/409/368 386/402/368
f 381/410/369 353/330/369 351/336/369 387/404/369
f 324/327/370 380/409/370 352/328/370
f 353/330/371 381/410/371 325/331/371
f 400/412/372 388/413/372 414/414/372 402/415/372
f 415/416/373 389/417/373 401/418/373 403/419/373
f 400/412/374 402/415/374 404/420/374 398/421/374
f 405/422/375 403/419/375 401/418/375 399/423/375
f 398/421/376 404/420/376 406/424/376 396/425/376
f 407/426/377 405/422/377 399/423/377 397/427/377
f 396/425/378 406/424/378 408/428/378 394/429/378
f 409/430/379 407/426/379 397/427/379 395/431/379
f 394/429/380 408/428/380 410/432/380 392/433/380
f 411/434/381 409/430/381 395/431/381 393/435/381
f 392/433/382 410/432/382 412/436/382 390/437/382
f 413/438/383 411/434/383 393/435/383 391/439/383
f 410/432/384 420/440/384 418/441/384 412/436/384
f 419/442/385 421/443/385 411/434/385 413/438/385
f 408/428/386 422/444/386 420/440/386 410/432/386
f 421/443/387 423/445/387 409/430/387 411/434/387
f 406/424/388 424/446/388 422/444/388 408/428/388
f 423/445/389 425/447/389 407/426/389 409/430/389
f 404/420/390 426/448/390 424/446/390 406/424/390
f 425/447/391 427/449/391 405/422/391 407/426/391
f 402/415/392 428/450/392 426/448/392 404/420/392
f 427/449/393 429/451/393 403/419/393 405/422/393
f 402/415/394 414/414/394 416/452/394 428/450/394
f 417/453/395 415/416/395 403/419/395 429/451/395
f 318/342/396 320/406/396 444/454/396 442/455/396
f 445/456/397 321/407/397 319/344/397 443/457/397
f 320/458/398 390/437/398 412/436/398 444/459/398
f 413/438/399 391/439/399 321/460/399 445/461/399
f 310/343/400 318/342/400 442/455/400 312/398/400
f 443/457/401 319/344/401 311/345/401 313/399/401
f 382/462/402 430/463/402 414/414/402 388/413/402
f 415/416/403 431/464/403 383/465/403 389/417/403
f 412/436/404 418/441/404 440/466/404 444/459/404
f 441/467/405 419/442/405 413/438/405 445/461/405
f 438/468/406 446/469/406 444/459/406 440/466/406
f 445/461/407 447/470/407 439/471/407 441/467/407
f 434/472/408 446/469/408 438/468/408 436/473/408
f 439/471/409 447/470/409 435/474/409 437/475/409
f 432/476/410 448/477/410 446/469/410 434/472/410
f 447/470/411 449/478/411 433/479/411 435/474/411
f 430/463/412 448/477/412 432/476/412 450/480/412
f 433/479/413 449/478/413 431/464/413 451/481/413
f 414/414/414 430/463/414 450/480/414 416/452/414
f 451/481/415 431/464/415 415/416/415 417/453/415
f 312/398/416 448/482/416 430/483/416 382/400/416
f 431/484/417 449/485/417 313/399/417 383/401/417
f 312/398/418 442/455/418 446/486/418 448/482/418
f 447/487/419 443/457/419 313/399/419 449/485/419
f 442/455/420 444/454/420 446/486/420
f 447/487/421 445/456/421 443/457/421
f 416/452/422 450/480/422 452/488/422 476/489/422
f 453/490/423 451/481/423 417/453/423 477/491/423
f 450/480/424 432/476/424 462/492/424 452/488/424
f 463/493/425 433/479/425 451/481/425 453/490/425
f 432/476/426 434/472/426 460/494/426 462/492/426
f 461/495/427 435/474/427 433/479/427 463/493/427
f 434/472/428 436/473/428 458/496/428 460/494/428
f 459/497/429 437/475/429 435/474/429 461/495/429
f 436/473/430 438/468/430 456/498/430 458/496/430
f 457/499/431 439/471/431 437/475/431 459/497/431
f 438/468/432 440/466/432 454/500/432 456/498/432
f 455/501/433 441/467/433 439/471/433 457/499/433
f 440/466/434 418/441/434 474/502/434 454/500/434
f 475/503/435 419/442/435 441/467/435 455/501/435
f 428/450/436 416/452/436 476/489/436 464/504/436
f 477/491/437 417/453/437 429/451/437 465/505/437
f 426/448/438 428/450/438 464/504/438 466/506/438
f 465/505/439 429/451/439 427/449/439 467/507/439
f 424/446/440 426/448/440 466/506/440 468/508/440
f 467/507/441 427/449/441 425/447/441 469/509/441
f 422/444/442 424/446/442 468/508/442 470/510/442
f 469/509/443 425/447/443 423/445/443 471/511/443
f 420/440/444 422/444/444 470/510/444 472/512/444
f 471/511/445 423/445/445 421/443/445 473/513/445
f 418/441/446 420/440/446 472/512/446 474/502/446
f 473/513/447 421/443/447 419/442/447 475/503/447
f 458/496/448 456/498/448 480/514/448 478/515/448
f 481/516/449 457/499/449 459/497/449 479/517/449
f 478/515/450 480/514/450 482/518/450 484/519/450
f 483/520/451 481/516/451 479/517/451 485/521/451
f 484/519/452 482/518/452 488/522/452 486/523/452
f 489/524/453 483/520/453 485/521/453 487/525/453
f 486/523/454 488/522/454 490/526/454 492/527/454
f 491/528/455 489/524/455 487/525/455 493/529/455
f 464/504/456 476/489/456 486/523/456 492/527/456
f 487/525/457 477/491/457 465/505/457 493/529/457
f 452/488/458 484/519/458 486/523/458 476/489/458
f 487/525/459 485/521/459 453/490/459 477/491/459
f 452/488/460 462/492/460 478/515/460 484/519/460
f 479/517/461 463/493/461 453/490/461 485/521/461
f 458/496/462 478/515/462 462/492/462 460/494/462
f 463/493/463 479/517/463 459/497/463 461/495/463
f 454/500/464 474/502/464 480/514/464 456/498/464
f 481/516/465 475/503/465 455/501/465 457/499/465
f 472/512/466 482/518/466 480/514/466 474/502/466
f 481/516/467 483/520/467 473/513/467 475/503/467
f 470/510/468 488/522/468 482/518/468 472/512/468
f 483/520/469 489/524/469 471/511/469 473/513/469
f 468/508/470 490/526/470 488/522/470 470/510/470
f 489/524/471 491/528/471 469/509/471 471/511/471
f 466/506/472 492/527/472 490/526/472 468/508/472
f 491/528/473 493/529/473 467/507/473 469/509/473
f 464/504/474 492/527/474 466/506/474
f 467/507/475 493/529/475 465/505/475
f 392/433/476 390/437/476 504/530/476 502/531/476
f 505/532/477 391/439/477 393/435/477 503/533/477
f 394/429/478 392/433/478 502/531/478 500/534/478
f 503/533/479 393/435/479 395/431/479 501/535/479
f 396/425/480 394/429/480 500/534/480 498/536/480
f 501/535/481 395/431/481 397/427/481 499/537/481
f 398/538/482 396/425/482 498/536/482 496/539/482
f 499/537/483 397/427/483 399/540/483 497/541/483
f 400/542/484 398/538/484 496/539/484 494/543/484
f 497/541/485 399/540/485 401/544/485 495/545/485
f 388/546/486 400/542/486 494/543/486 506/547/486
f 495/545/487 401/544/487 389/548/487 507/549/487
f 494/543/488 502/531/488 504/530/488 506/547/488
f 505/532/489 503/533/489 495/545/489 507/549/489
f 494/543/490 496/539/490 500/534/490 502/531/490
f 501/535/491 497/541/491 495/545/491 503/533/491
f 496/539/492 498/536/492 500/534/492
f 501/535/493 499/537/493 497/541/493
f 314/550/494 382/551/494 388/546/494 506/547/494
f 389/548/495 383/552/495 315/553/495 507/549/495
f 314/550/496 506/547/496 504/530/496 322/554/496
f 505/532/497 507/549/497 315/553/497 323/555/497
f 320/458/498 322/554/498 504/530/498 390/437/498
f 505/532/499 323/555/499 321/460/499 391/439/499
